<?xml version="1.0" encoding="utf-8"?>
<!-- Generator: Adobe Illustrator 17.0.0, SVG Export Plug-In . SVG Version: 6.00 Build 0)  -->
<!DOCTYPE svg PUBLIC "-//W3C//DTD SVG 1.1//EN" "http://www.w3.org/Graphics/SVG/1.1/DTD/svg11.dtd">
<svg version="1.1" id="Layer_1" xmlns="http://www.w3.org/2000/svg" xmlns:xlink="http://www.w3.org/1999/xlink" x="0px" y="0px"
	 width="10" height="10" viewBox="0 0 10 10" enable-background="new 0 0 10 10" xml:space="preserve">
<polyline fill="none" stroke="#88817E" stroke-width="1.292" stroke-linecap="round" points="4,8.992 6.632,5.996 4,3 "/>
</svg>
