<svg xmlns="http://www.w3.org/2000/svg" xmlns:xlink="http://www.w3.org/1999/xlink" viewBox="0 0 96 48">
	<defs>
      <linearGradient id="linear-gradient" x1="78.73" y1="17.27" x2="69.14" y2="26.86" gradientUnits="userSpaceOnUse"><stop offset="0" stop-opacity="0"/><stop offset="1"/></linearGradient>
		<style>
			 .fL-gradient { opacity: 0.3; fill:  url(#linear-gradient); } 
			 .fL-white-bg, .fL-strikethru { fill: #fff; }
		</style>
    </defs>
    <polygon class="fL-strikethru" points="6.21 0 68.21 62 67 62 5 0 6.21 0"/>
    <polygon class="fL-gradient" points="48 0 96 0 96 48 48 0"/>
    <polygon class="fL-white-bg" points="0 0 0 62 62 62 0 0"/>
  </svg>